{
    "servers": {
        "Sardana": {
            "sardana1": {
                "CTExpChannel": {
                    "expchan/ctctrl01/1": {
                        "alias": "ct01", 
                        "attribute_properties": {
                            "value": {
                                "abs_change": [
                                    "1.0"
                                ]
                            }
                        }, 
                        "properties": {
                            "axis": [
                                "1"
                            ], 
                            "ctrl_id": [
                                "6"
                            ], 
                            "id": [
                                "7"
                            ]
                        }
                    }, 
                    "expchan/ctctrl01/2": {
                        "alias": "ct02", 
                        "properties": {
                            "axis": [
                                "2"
                            ], 
                            "ctrl_id": [
                                "6"
                            ], 
                            "id": [
                                "8"
                            ]
                        }
                    }, 
                    "expchan/ctctrl01/3": {
                        "alias": "ct03", 
                        "properties": {
                            "axis": [
                                "3"
                            ], 
                            "ctrl_id": [
                                "6"
                            ], 
                            "id": [
                                "9"
                            ]
                        }
                    }, 
                    "expchan/ctctrl01/4": {
                        "alias": "ct04", 
                        "properties": {
                            "axis": [
                                "4"
                            ], 
                            "ctrl_id": [
                                "6"
                            ], 
                            "id": [
                                "10"
                            ]
                        }
                    }
                }, 
                "Controller": {
                    "controller/dummycountertimercontroller/ctctrl01": {
                        "alias": "ctctrl01", 
                        "properties": {
                            "id": [
                                "6"
                            ], 
                            "klass": [
                                "DummyCounterTimerController"
                            ], 
                            "library": [
                                "DummyCounterTimerController.py"
                            ], 
                            "type": [
                                "CTExpChannel"
                            ]
                        }
                    }, 
                    "controller/dummyiorcontroller/iorctrl01": {
                        "alias": "iorctrl01", 
                        "properties": {
                            "id": [
                                "27"
                            ], 
                            "klass": [
                                "DummyIORController"
                            ], 
                            "library": [
                                "DummyIORController.py"
                            ], 
                            "type": [
                                "IORegister"
                            ]
                        }
                    }, 
                    "controller/dummymotorcontroller/motctrl01": {
                        "alias": "motctrl01", 
                        "attribute_properties": {
                            "lowerlimitswitch": {
                                "__value": [
                                    "-9999.9999"
                                ]
                            }, 
                            "upperlimitswitch": {
                                "__value": [
                                    "8888.8888"
                                ]
                            }
                        }, 
                        "properties": {
                            "id": [
                                "1"
                            ], 
                            "klass": [
                                "DummyMotorController"
                            ], 
                            "library": [
                                "DummyMotorController.py"
                            ], 
                            "prop1": [
                                "test property 1"
                            ], 
                            "prop2": [
                                "531"
                            ], 
                            "type": [
                                "Motor"
                            ]
                        }
                    }, 
                    "controller/dummyonedcontroller/onedctrl01": {
                        "alias": "onedctrl01", 
                        "properties": {
                            "id": [
                                "16"
                            ], 
                            "klass": [
                                "DummyOneDController"
                            ], 
                            "library": [
                                "DummyOneDController.py"
                            ], 
                            "type": [
                                "OneDExpChannel"
                            ]
                        }
                    }, 
                    "controller/dummytriggergatecontroller/tgctrl01": {
                        "alias": "tgctrl01", 
                        "properties": {
                            "id": [
                                "25"
                            ], 
                            "klass": [
                                "DummyTriggerGateController"
                            ], 
                            "library": [
                                "DummyTriggerGateController.py"
                            ], 
                            "type": [
                                "TriggerGate"
                            ]
                        }
                    }, 
                    "controller/dummytwodcontroller/twodctrl01": {
                        "alias": "twodctrl01", 
                        "properties": {
                            "id": [
                                "18"
                            ], 
                            "klass": [
                                "DummyTwoDController"
                            ], 
                            "library": [
                                "DummyTwoDController.py"
                            ], 
                            "type": [
                                "TwoDExpChannel"
                            ]
                        }
                    }, 
                    "controller/dummyzerodcontroller/zerodctrl01": {
                        "alias": "zerodctrl01", 
                        "properties": {
                            "id": [
                                "11"
                            ], 
                            "klass": [
                                "DummyZeroDController"
                            ], 
                            "library": [
                                "DummyZeroDController.py"
                            ], 
                            "type": [
                                "ZeroDExpChannel"
                            ]
                        }
                    }, 
                    "controller/slit/slitctrl01": {
                        "alias": "slitctrl01", 
                        "properties": {
                            "id": [
                                "22"
                            ], 
                            "klass": [
                                "Slit"
                            ], 
                            "library": [
                                "Slit.py"
                            ], 
                            "motor_role_ids": [
                                "2", 
                                "3"
                            ], 
                            "pseudo_motor_role_ids": [
                                "20", 
                                "21"
                            ], 
                            "sign": [
                                "1"
                            ], 
                            "type": [
                                "PseudoMotor"
                            ]
                        }
                    }
                }, 
                "Door": {
                    "Door/sardana1/1": {
                        "alias": "Door_sardana1_1", 
                        "properties": {
                            "Id": [
                                "1"
                            ]
                        }
                    }
                }, 
                "IORegister": {
                    "ioregister/iorctrl01/1": {
                        "alias": "ior01", 
                        "attribute_properties": {
                            "value": {
                                "abs_change": [
                                    "1"
                                ]
                            }
                        }, 
                        "properties": {
                            "axis": [
                                "1"
                            ], 
                            "ctrl_id": [
                                "27"
                            ], 
                            "id": [
                                "28"
                            ]
                        }
                    }, 
                    "ioregister/iorctrl01/2": {
                        "alias": "ior02", 
                        "attribute_properties": {
                            "Value": {
                                "abs_change": [
                                    "-1", 
                                    "1"
                                ]
                            }
                        }, 
                        "properties": {
                            "axis": [
                                "2"
                            ], 
                            "ctrl_id": [
                                "27"
                            ], 
                            "id": [
                                "29"
                            ]
                        }
                    }
                }, 
                "MacroServer": {
                    "MacroServer/sardana1/1": {
                        "alias": "MS_sardana1_1", 
                        "properties": {
                            "PoolNames": [
                                "pool/sardana1/1"
                            ]
                        }
                    }
                }, 
                "MeasurementGroup": {
                    "mntgrp/pool_sardana1_1/mntgrp01": {
                        "alias": "mntgrp01", 
                        "attribute_properties": {
                            "Configuration": {
                                "__value": [
                                    "{\"controllers\":{\"TangoBox-VM:10000/controller/dummycountertimercontroller/ctctrl01\":{\"synchronizer\":\"software\",\"channels\":{\"TangoBox-VM:10000/expchan/ctctrl01/1\":{\"ndim\":0,\"index\":0,\"name\":\"ct01\",\"plot_type\":1,\"enabled\":true,\"label\":\"ct01\",\"instrument\":null,\"_controller_name\":\"TangoBox-VM:10000/controller/dummycountertimercontroller/ctctrl01\",\"source\":\"TangoBox-VM:10000/expchan/ctctrl01/1/Value\",\"full_name\":\"TangoBox-VM:10000/expchan/ctctrl01/1\",\"output\":true,\"plot_axes\":[\"TangoBox-VM:10000/expchan/ctctrl01/1\"],\"nexus_path\":\"\",\"normalization\":0,\"conditioning\":\"\"},\"TangoBox-VM:10000/expchan/ctctrl01/2\":{\"ndim\":0,\"index\":1,\"name\":\"ct02\",\"plot_type\":0,\"enabled\":true,\"label\":\"ct02\",\"instrument\":null,\"_controller_name\":\"TangoBox-VM:10000/controller/dummycountertimercontroller/ctctrl01\",\"source\":\"TangoBox-VM:10000/expchan/ctctrl01/2/Value\",\"full_name\":\"TangoBox-VM:10000/expchan/ctctrl01/2\",\"output\":true,\"plot_axes\":[\"TangoBox-VM:10000/expchan/ctctrl01/2\"],\"normalization\":0,\"conditioning\":\"\"},\"TangoBox-VM:10000/expchan/ctctrl01/3\":{\"ndim\":0,\"index\":2,\"name\":\"ct03\",\"plot_type\":0,\"enabled\":true,\"label\":\"ct03\",\"instrument\":null,\"_controller_name\":\"TangoBox-VM:10000/controller/dummycountertimercontroller/ctctrl01\",\"source\":\"TangoBox-VM:10000/expchan/ctctrl01/3/Value\",\"full_name\":\"TangoBox-VM:10000/expchan/ctctrl01/3\",\"output\":true,\"plot_axes\":[\"TangoBox-VM:10000/expchan/ctctrl01/3\"],\"normalization\":0,\"conditioning\":\"\"},\"TangoBox-VM:10000/expchan/ctctrl01/4\":{\"ndim\":0,\"index\":3,\"name\":\"ct04\",\"plot_type\":1,\"enabled\":true,\"label\":\"ct04\",\"instrument\":null,\"_controller_name\":\"TangoBox-VM:10000/controller/dummycountertimercontroller/ctctrl01\",\"source\":\"TangoBox-VM:10000/expchan/ctctrl01/4/Value\",\"full_name\":\"TangoBox-VM:10000/expchan/ctctrl01/4\",\"output\":true,\"plot_axes\":[\"<idx>\"],\"normalization\":0,\"conditioning\":\"\"}},\"synchronization\":0,\"monitor\":\"TangoBox-VM:10000/expchan/ctctrl01/1\",\"timer\":\"TangoBox-VM:10000/expchan/ctctrl01/1\"},\"TangoBox-VM:10000/controller/dummyzerodcontroller/zerodctrl01\":{\"channels\":{\"TangoBox-VM:10000/expchan/zerodctrl01/1\":{\"plot_type\":1,\"plot_axes\":[\"<mov>\"],\"data_type\":\"float64\",\"nexus_path\":\"\",\"shape\":[],\"conditioning\":\"\",\"full_name\":\"TangoBox-VM:10000/expchan/zerodctrl01/1\",\"normalization\":0,\"index\":4,\"name\":\"zerod01\",\"enabled\":true,\"label\":\"zerod01\",\"_controller_name\":\"TangoBox-VM:10000/controller/dummyzerodcontroller/zerodctrl01\",\"data_units\":\"\",\"output\":true}}}},\"monitor\":\"TangoBox-VM:10000/expchan/ctctrl01/1\",\"description\":\"General purpose measurement group\",\"timer\":\"TangoBox-VM:10000/expchan/ctctrl01/1\",\"label\":\"mntgrp01\"}"
                                ]
                            }, 
                            "IntegrationTime": {
                                "__value": [
                                    "0.1"
                                ]
                            }, 
                            "Moveable": {
                                "__value": [
                                    "None"
                                ]
                            }
                        }, 
                        "properties": {
                            "elements": [
                                "7", 
                                "8", 
                                "9", 
                                "10"
                            ], 
                            "id": [
                                "30"
                            ]
                        }
                    }
                }, 
                "Motor": {
                    "motor/motctrl01/1": {
                        "alias": "mot01", 
                        "attribute_properties": {
                            "dialposition": {
                                "__value": [
                                    "0.75"
                                ], 
                                "__value_ts": [
                                    "1511188974.270705"
                                ], 
                                "abs_change": [
                                    "5.0"
                                ]
                            }, 
                            "position": {
                                "abs_change": [
                                    "1.0"
                                ]
                            }
                        }, 
                        "properties": {
                            "axis": [
                                "1"
                            ], 
                            "ctrl_id": [
                                "1"
                            ], 
                            "id": [
                                "2"
                            ]
                        }
                    }, 
                    "motor/motctrl01/2": {
                        "alias": "mot02", 
                        "attribute_properties": {
                            "DialPosition": {
                                "__value": [
                                    "0.75"
                                ], 
                                "__value_ts": [
                                    "1511188974.270705"
                                ], 
                                "abs_change": [
                                    "-5", 
                                    "5"
                                ]
                            }
                        }, 
                        "properties": {
                            "axis": [
                                "2"
                            ], 
                            "ctrl_id": [
                                "1"
                            ], 
                            "id": [
                                "3"
                            ]
                        }
                    }, 
                    "motor/motctrl01/3": {
                        "alias": "mot03", 
                        "attribute_properties": {
                            "DialPosition": {
                                "abs_change": [
                                    "-5", 
                                    "5"
                                ]
                            }
                        }, 
                        "properties": {
                            "axis": [
                                "3"
                            ], 
                            "ctrl_id": [
                                "1"
                            ], 
                            "id": [
                                "4"
                            ]
                        }
                    }, 
                    "motor/motctrl01/4": {
                        "alias": "mot04", 
                        "attribute_properties": {
                            "DialPosition": {
                                "abs_change": [
                                    "-5", 
                                    "5"
                                ]
                            }
                        }, 
                        "properties": {
                            "axis": [
                                "4"
                            ], 
                            "ctrl_id": [
                                "1"
                            ], 
                            "id": [
                                "5"
                            ]
                        }
                    }
                }, 
                "OneDExpChannel": {
                    "expchan/onedctrl01/1": {
                        "alias": "oned01", 
                        "properties": {
                            "axis": [
                                "1"
                            ], 
                            "ctrl_id": [
                                "16"
                            ], 
                            "id": [
                                "17"
                            ]
                        }
                    }
                }, 
                "Pool": {
                    "pool/sardana1/1": {
                        "alias": "Pool_sardana1_1"
                    }
                }, 
                "PseudoMotor": {
                    "pm/slitctrl01/1": {
                        "alias": "gap01", 
                        "properties": {
                            "axis": [
                                "1"
                            ], 
                            "ctrl_id": [
                                "22"
                            ], 
                            "elements": [
                                "2", 
                                "3"
                            ], 
                            "id": [
                                "24"
                            ]
                        }
                    }, 
                    "pm/slitctrl01/2": {
                        "alias": "offset01", 
                        "attribute_properties": {
                            "position": {
                                "abs_change": [
                                    "1.0"
                                ]
                            }
                        }, 
                        "properties": {
                            "axis": [
                                "2"
                            ], 
                            "ctrl_id": [
                                "22"
                            ], 
                            "elements": [
                                "2", 
                                "3"
                            ], 
                            "id": [
                                "23"
                            ]
                        }
                    }
                }, 
                "TriggerGate": {
                    "triggergate/tgctrl01/1": {
                        "alias": "tg01", 
                        "properties": {
                            "axis": [
                                "1"
                            ], 
                            "ctrl_id": [
                                "25"
                            ], 
                            "id": [
                                "26"
                            ]
                        }
                    }
                }, 
                "TwoDExpChannel": {
                    "expchan/twodctrl01/1": {
                        "alias": "twod01", 
                        "properties": {
                            "axis": [
                                "1"
                            ], 
                            "ctrl_id": [
                                "18"
                            ], 
                            "id": [
                                "19"
                            ]
                        }
                    }
                }, 
                "ZeroDExpChannel": {
                    "expchan/zerodctrl01/1": {
                        "alias": "zerod01", 
                        "properties": {
                            "axis": [
                                "1"
                            ], 
                            "ctrl_id": [
                                "11"
                            ], 
                            "id": [
                                "12"
                            ]
                        }
                    }, 
                    "expchan/zerodctrl01/2": {
                        "alias": "zerod02", 
                        "properties": {
                            "axis": [
                                "2"
                            ], 
                            "ctrl_id": [
                                "11"
                            ], 
                            "id": [
                                "13"
                            ]
                        }
                    }, 
                    "expchan/zerodctrl01/3": {
                        "alias": "zerod03", 
                        "properties": {
                            "axis": [
                                "3"
                            ], 
                            "ctrl_id": [
                                "11"
                            ], 
                            "id": [
                                "14"
                            ]
                        }
                    }, 
                    "expchan/zerodctrl01/4": {
                        "alias": "zerod04", 
                        "properties": {
                            "axis": [
                                "4"
                            ], 
                            "ctrl_id": [
                                "11"
                            ], 
                            "id": [
                                "15"
                            ]
                        }
                    }
                }
            }
        }
    }
}
